{
  "python": {
    "organizeimports": {
      "provider": "isort"
    },
    "formatting": {
      "provider": "black"
    },
    "linting": {
      "pycodestyleEnabled": true,
      "pydocstyleEnabled": true,
      "pylint": true
    }
  }
}
